%YAML 1.1
%TAG !u! tag:unity3d.com,2011:
--- !u!21 &2100000
Material:
  serializedVersion: 6
  m_ObjectHideFlags: 0
  m_PrefabParentObject: {fileID: 0}
  m_PrefabInternal: {fileID: 0}
  m_Name: mtl_lava_distort_transparent
  m_Shader: {fileID: 4800000, guid: 0803b816564bc844b9300c6e1572fcff, type: 3}
  m_ShaderKeywords: 
  m_LightmapFlags: 5
  m_CustomRenderQueue: -1
  stringTagMap: {}
  m_SavedProperties:
    serializedVersion: 2
    m_TexEnvs:
    - first:
        name: _Distort
      second:
        m_Texture: {fileID: 2800000, guid: 0ebfaeff4eb7328498165095f9cfc32f, type: 3}
        m_Scale: {x: 1, y: 1}
        m_Offset: {x: 0, y: 0}
    - first:
        name: _LavaTex
      second:
        m_Texture: {fileID: 2800000, guid: aed369d136cf0174e8e04dfb34567e6a, type: 3}
        m_Scale: {x: 1, y: 1}
        m_Offset: {x: 7.739765, y: 0}
    - first:
        name: _MainTex
      second:
        m_Texture: {fileID: 2800000, guid: aed369d136cf0174e8e04dfb34567e6a, type: 3}
        m_Scale: {x: 1, y: 1}
        m_Offset: {x: 0, y: 0}
    - first:
        name: _MainTex2
      second:
        m_Texture: {fileID: 2800000, guid: bef54341b6d21864c82d47f3bed4c7db, type: 3}
        m_Scale: {x: 1, y: 1}
        m_Offset: {x: 0.28963017, y: 0}
    - first:
        name: _MainTex_Add
      second:
        m_Texture: {fileID: 2800000, guid: 1a5d8cd24a805cd44b00c7f1e1e4d287, type: 3}
        m_Scale: {x: 1, y: 1}
        m_Offset: {x: 1.5691679, y: 0}
    m_Floats:
    - first:
        name: _Displacement
      second: 0.0375
    - first:
        name: _DistortX
      second: 1.0714285
    - first:
        name: _DistortY
      second: 0.73
    - first:
        name: _RefractTexTiling
      second: 1
    m_Colors:
    - first:
        name: _ChannelFactor
      second: {r: -0.3281326, g: 0.5920941, b: 0.7360384, a: 0}
    - first:
        name: _Color
      second: {r: 1, g: 1, b: 1, a: 0.07058824}
    - first:
        name: _SpeedStrength
      second: {r: 1, g: 1, b: 1, a: 1}
